{
    "key": "group_5409de8b488f4",
    "title": "Layouts",
    "fields": [
        {
            "key": "field_5409d668d395b",
            "label": "Layout",
            "name": "layout",
            "type": "flexible_content",
            "instructions": "",
            "required": 0,
            "conditional_logic": 0,
            "wrapper": {
                "width": "",
                "class": "",
                "id": ""
            },
            "layouts": {
                "5409de8b4c6b9": {
                    "key": "5409de8b4c6b9",
                    "name": "slider",
                    "label": "Slider",
                    "display": "block",
                    "sub_fields": [
                        {
                            "key": "field_5b9f5de9c6b23",
                            "label": "Slides",
                            "name": "slides",
                            "type": "repeater",
                            "instructions": "",
                            "required": 0,
                            "conditional_logic": 0,
                            "wrapper": {
                                "width": "",
                                "class": "",
                                "id": ""
                            },
                            "collapsed": "",
                            "min": 0,
                            "max": 0,
                            "layout": "block",
                            "button_label": "Tilføj slides",
                            "sub_fields": [
                                {
                                    "key": "field_5b9f5dfac6b24",
                                    "label": "Baggrundsbillede",
                                    "name": "slides_bg",
                                    "type": "image",
                                    "instructions": "",
                                    "required": 0,
                                    "conditional_logic": 0,
                                    "wrapper": {
                                        "width": "",
                                        "class": "",
                                        "id": ""
                                    },
                                    "return_format": "array",
                                    "preview_size": "thumbnail",
                                    "library": "all",
                                    "min_width": "",
                                    "min_height": "",
                                    "min_size": "",
                                    "max_width": "",
                                    "max_height": "",
                                    "max_size": "",
                                    "mime_types": ""
                                },
                                {
                                    "key": "field_5b9f5e3cc6b26",
                                    "label": "Overskrift",
                                    "name": "slides_title",
                                    "type": "text",
                                    "instructions": "",
                                    "required": 0,
                                    "conditional_logic": 0,
                                    "wrapper": {
                                        "width": "50",
                                        "class": "",
                                        "id": ""
                                    },
                                    "default_value": "",
                                    "placeholder": "",
                                    "prepend": "",
                                    "append": "",
                                    "maxlength": ""
                                },
                                {
                                    "key": "field_5b9f5e20c6b25",
                                    "label": "Tekst",
                                    "name": "slides_text",
                                    "type": "wysiwyg",
                                    "instructions": "",
                                    "required": 0,
                                    "conditional_logic": 0,
                                    "wrapper": {
                                        "width": "50",
                                        "class": "",
                                        "id": ""
                                    },
                                    "default_value": "",
                                    "tabs": "all",
                                    "toolbar": "full",
                                    "media_upload": 0,
                                    "delay": 0
                                }
                            ]
                        }
                    ],
                    "min": "",
                    "max": ""
                },
                "5412c2812a2f5": {
                    "key": "5412c2812a2f5",
                    "name": "wysiwygs",
                    "label": "WYSIWYGs",
                    "display": "block",
                    "sub_fields": [
                        {
                            "key": "field_5412c28a2a2f6",
                            "label": "Overskrift",
                            "name": "header",
                            "type": "text",
                            "instructions": "",
                            "required": 0,
                            "conditional_logic": 0,
                            "wrapper": {
                                "width": "",
                                "class": "",
                                "id": ""
                            },
                            "default_value": "",
                            "placeholder": "",
                            "prepend": "",
                            "append": "",
                            "maxlength": ""
                        },
                        {
                            "key": "field_5412ce61ab045",
                            "label": "Offset",
                            "name": "offset",
                            "type": "radio",
                            "instructions": "Flexible<br>\r\n2 to 1<br>\r\n1 to 2",
                            "required": 0,
                            "conditional_logic": 0,
                            "wrapper": {
                                "width": "50",
                                "class": "",
                                "id": ""
                            },
                            "choices": {
                                "Flexible": "Flexible",
                                "2 to 1": "2 to 1",
                                "1 to 2": "1 to 2"
                            },
                            "allow_null": 0,
                            "other_choice": 0,
                            "default_value": "",
                            "layout": "vertical",
                            "return_format": "value",
                            "save_other_choice": 0
                        },
                        {
                            "key": "field_5d08b64234594",
                            "label": "Flex",
                            "name": "flex",
                            "type": "true_false",
                            "instructions": "Centrer indhold i kolonner vertikalt.",
                            "required": 0,
                            "conditional_logic": 0,
                            "wrapper": {
                                "width": "50",
                                "class": "",
                                "id": ""
                            },
                            "message": "",
                            "default_value": 0,
                            "ui": 0,
                            "ui_on_text": "",
                            "ui_off_text": ""
                        },
                        {
                            "key": "field_5b9fa68225296",
                            "label": "Baggrundsfarve",
                            "name": "bg",
                            "type": "select",
                            "instructions": "Vælg sektionens baggrundsfarve.",
                            "required": 0,
                            "conditional_logic": 0,
                            "wrapper": {
                                "width": "50",
                                "class": "",
                                "id": ""
                            },
                            "choices": {
                                "none": "Ingen",
                                "blue-light": "Lys blå"
                            },
                            "default_value": [
                                "none"
                            ],
                            "allow_null": 0,
                            "multiple": 0,
                            "ui": 0,
                            "return_format": "value",
                            "ajax": 0,
                            "placeholder": ""
                        },
                        {
                            "key": "field_5b9fa6f98efcb",
                            "label": "Margin",
                            "name": "margin",
                            "type": "select",
                            "instructions": "Vælg om sektionen skal have margin i top, bund, begge eller ingen.",
                            "required": 0,
                            "conditional_logic": 0,
                            "wrapper": {
                                "width": "50",
                                "class": "",
                                "id": ""
                            },
                            "choices": {
                                "none": "Ingen",
                                "top": "Top",
                                "bottom": "Bund",
                                "both": "Begge"
                            },
                            "default_value": [
                                "none"
                            ],
                            "allow_null": 0,
                            "multiple": 0,
                            "ui": 0,
                            "return_format": "value",
                            "ajax": 0,
                            "placeholder": ""
                        },
                        {
                            "key": "field_5412c2c02a2f7",
                            "label": "WYSIWYGs",
                            "name": "wysiwygs",
                            "type": "repeater",
                            "instructions": "",
                            "required": 0,
                            "conditional_logic": 0,
                            "wrapper": {
                                "width": "",
                                "class": "",
                                "id": ""
                            },
                            "collapsed": "",
                            "min": 0,
                            "max": 0,
                            "layout": "table",
                            "button_label": "Tilføj WYSIWYG's",
                            "sub_fields": [
                                {
                                    "key": "field_5412c2da2a2f8",
                                    "label": "WYSIWYG",
                                    "name": "wysiwyg",
                                    "type": "wysiwyg",
                                    "instructions": "",
                                    "required": 0,
                                    "conditional_logic": 0,
                                    "wrapper": {
                                        "width": "",
                                        "class": "",
                                        "id": ""
                                    },
                                    "default_value": "",
                                    "tabs": "all",
                                    "toolbar": "full",
                                    "media_upload": 1,
                                    "delay": 0
                                }
                            ]
                        }
                    ],
                    "min": "",
                    "max": ""
                },
                "layout_5ba0a94143236": {
                    "key": "layout_5ba0a94143236",
                    "name": "link-boxes",
                    "label": "Link boxes",
                    "display": "block",
                    "sub_fields": [
                        {
                            "key": "field_5ba0a9f94323e",
                            "label": "Sektions indstillinger",
                            "name": "",
                            "type": "tab",
                            "instructions": "",
                            "required": 0,
                            "conditional_logic": 0,
                            "wrapper": {
                                "width": "",
                                "class": "",
                                "id": ""
                            },
                            "placement": "top",
                            "endpoint": 0
                        },
                        {
                            "key": "field_5ba0a94143237",
                            "label": "Overskrift",
                            "name": "header",
                            "type": "text",
                            "instructions": "",
                            "required": 0,
                            "conditional_logic": 0,
                            "wrapper": {
                                "width": "",
                                "class": "",
                                "id": ""
                            },
                            "default_value": "",
                            "placeholder": "",
                            "prepend": "",
                            "append": "",
                            "maxlength": ""
                        },
                        {
                            "key": "field_5d056e2c08480",
                            "label": "Tekst",
                            "name": "text",
                            "type": "textarea",
                            "instructions": "",
                            "required": 0,
                            "conditional_logic": 0,
                            "wrapper": {
                                "width": "",
                                "class": "",
                                "id": ""
                            },
                            "default_value": "",
                            "placeholder": "",
                            "maxlength": "",
                            "rows": "",
                            "new_lines": ""
                        },
                        {
                            "key": "field_5ba0a94143239",
                            "label": "Baggrundsfarve",
                            "name": "bg",
                            "type": "select",
                            "instructions": "Vælg sektionens baggrundsfarve.",
                            "required": 0,
                            "conditional_logic": 0,
                            "wrapper": {
                                "width": "50",
                                "class": "",
                                "id": ""
                            },
                            "choices": {
                                "none": "Ingen",
                                "blue-light": "Lys blå"
                            },
                            "default_value": [
                                "none"
                            ],
                            "allow_null": 0,
                            "multiple": 0,
                            "ui": 0,
                            "return_format": "value",
                            "ajax": 0,
                            "placeholder": ""
                        },
                        {
                            "key": "field_5ba0a9414323a",
                            "label": "Margin",
                            "name": "margin",
                            "type": "select",
                            "instructions": "Vælg om sektionen skal have margin i top, bund, begge eller ingen.",
                            "required": 0,
                            "conditional_logic": 0,
                            "wrapper": {
                                "width": "50",
                                "class": "",
                                "id": ""
                            },
                            "choices": {
                                "none": "Ingen",
                                "top": "Top",
                                "bottom": "Bund",
                                "both": "Begge"
                            },
                            "default_value": [
                                "none"
                            ],
                            "allow_null": 0,
                            "multiple": 0,
                            "ui": 0,
                            "return_format": "value",
                            "ajax": 0,
                            "placeholder": ""
                        },
                        {
                            "key": "field_5ba0aa164323f",
                            "label": "Link boxes",
                            "name": "",
                            "type": "tab",
                            "instructions": "",
                            "required": 0,
                            "conditional_logic": 0,
                            "wrapper": {
                                "width": "",
                                "class": "",
                                "id": ""
                            },
                            "placement": "top",
                            "endpoint": 0
                        },
                        {
                            "key": "field_5ba0a9414323b",
                            "label": "Link boxes",
                            "name": "linkbox",
                            "type": "repeater",
                            "instructions": "",
                            "required": 0,
                            "conditional_logic": 0,
                            "wrapper": {
                                "width": "",
                                "class": "",
                                "id": ""
                            },
                            "collapsed": "",
                            "min": 0,
                            "max": 0,
                            "layout": "block",
                            "button_label": "Tilføj Link boxes",
                            "sub_fields": [
                                {
                                    "key": "field_5ba0b6202589d",
                                    "label": "Ikon\/billede (valgfri)",
                                    "name": "icon",
                                    "type": "image",
                                    "instructions": "",
                                    "required": 0,
                                    "conditional_logic": 0,
                                    "wrapper": {
                                        "width": "",
                                        "class": "",
                                        "id": ""
                                    },
                                    "return_format": "array",
                                    "preview_size": "thumbnail",
                                    "library": "all",
                                    "min_width": "",
                                    "min_height": "",
                                    "min_size": "",
                                    "max_width": "",
                                    "max_height": "",
                                    "max_size": "",
                                    "mime_types": ""
                                },
                                {
                                    "key": "field_5ba0a9414323c",
                                    "label": "Overskrift",
                                    "name": "title",
                                    "type": "text",
                                    "instructions": "",
                                    "required": 0,
                                    "conditional_logic": 0,
                                    "wrapper": {
                                        "width": "",
                                        "class": "",
                                        "id": ""
                                    },
                                    "default_value": "",
                                    "placeholder": "",
                                    "prepend": "",
                                    "append": "",
                                    "maxlength": ""
                                },
                                {
                                    "key": "field_5c7e68743d3df",
                                    "label": "Link",
                                    "name": "link",
                                    "type": "page_link",
                                    "instructions": "",
                                    "required": 0,
                                    "conditional_logic": 0,
                                    "wrapper": {
                                        "width": "",
                                        "class": "",
                                        "id": ""
                                    },
                                    "post_type": "",
                                    "taxonomy": "",
                                    "allow_null": 0,
                                    "allow_archives": 1,
                                    "multiple": 0
                                }
                            ]
                        }
                    ],
                    "min": "",
                    "max": "3"
                },
                "layout_5da05fcf3c4e3": {
                    "key": "layout_5da05fcf3c4e3",
                    "name": "featured-products",
                    "label": "Udvalgte produkter",
                    "display": "block",
                    "sub_fields": [
                        {
                            "key": "field_5da05fcf3c4e4",
                            "label": "Sektions indstillinger",
                            "name": "",
                            "type": "tab",
                            "instructions": "",
                            "required": 0,
                            "conditional_logic": 0,
                            "wrapper": {
                                "width": "",
                                "class": "",
                                "id": ""
                            },
                            "placement": "top",
                            "endpoint": 0
                        },
                        {
                            "key": "field_5da05fcf3c4e5",
                            "label": "Overskrift",
                            "name": "header",
                            "type": "text",
                            "instructions": "",
                            "required": 0,
                            "conditional_logic": 0,
                            "wrapper": {
                                "width": "",
                                "class": "",
                                "id": ""
                            },
                            "default_value": "",
                            "placeholder": "",
                            "prepend": "",
                            "append": "",
                            "maxlength": ""
                        },
                        {
                            "key": "field_5da05fcf3c4e6",
                            "label": "Tekst",
                            "name": "text",
                            "type": "textarea",
                            "instructions": "",
                            "required": 0,
                            "conditional_logic": 0,
                            "wrapper": {
                                "width": "",
                                "class": "",
                                "id": ""
                            },
                            "default_value": "",
                            "placeholder": "",
                            "maxlength": "",
                            "rows": "",
                            "new_lines": ""
                        },
                        {
                            "key": "field_5da05fcf3c4e7",
                            "label": "Baggrundsfarve",
                            "name": "bg",
                            "type": "select",
                            "instructions": "Vælg sektionens baggrundsfarve.",
                            "required": 0,
                            "conditional_logic": 0,
                            "wrapper": {
                                "width": "50",
                                "class": "",
                                "id": ""
                            },
                            "choices": {
                                "none": "Ingen",
                                "blue-light": "Lys blå"
                            },
                            "default_value": [
                                "none"
                            ],
                            "allow_null": 0,
                            "multiple": 0,
                            "ui": 0,
                            "ajax": 0,
                            "return_format": "value",
                            "placeholder": ""
                        },
                        {
                            "key": "field_5da05fcf3c4e8",
                            "label": "Margin",
                            "name": "margin",
                            "type": "select",
                            "instructions": "Vælg om sektionen skal have margin i top, bund, begge eller ingen.",
                            "required": 0,
                            "conditional_logic": 0,
                            "wrapper": {
                                "width": "50",
                                "class": "",
                                "id": ""
                            },
                            "choices": {
                                "none": "Ingen",
                                "top": "Top",
                                "bottom": "Bund",
                                "both": "Begge"
                            },
                            "default_value": [
                                "none"
                            ],
                            "allow_null": 0,
                            "multiple": 0,
                            "ui": 0,
                            "ajax": 0,
                            "return_format": "value",
                            "placeholder": ""
                        },
                        {
                            "key": "field_5da05fcf3c4e9",
                            "label": "Produkter",
                            "name": "",
                            "type": "tab",
                            "instructions": "",
                            "required": 0,
                            "conditional_logic": 0,
                            "wrapper": {
                                "width": "",
                                "class": "",
                                "id": ""
                            },
                            "placement": "top",
                            "endpoint": 0
                        },
                        {
                            "key": "field_5da05fcf3c4ea",
                            "label": "Produkter",
                            "name": "products",
                            "type": "repeater",
                            "instructions": "",
                            "required": 0,
                            "conditional_logic": 0,
                            "wrapper": {
                                "width": "",
                                "class": "",
                                "id": ""
                            },
                            "collapsed": "",
                            "min": 0,
                            "max": 3,
                            "layout": "block",
                            "button_label": "Tilføj Produkter",
                            "sub_fields": [
                                {
                                    "key": "field_5da05fcf3c4eb",
                                    "label": "Produkt billede",
                                    "name": "img",
                                    "type": "image",
                                    "instructions": "",
                                    "required": 0,
                                    "conditional_logic": 0,
                                    "wrapper": {
                                        "width": "",
                                        "class": "",
                                        "id": ""
                                    },
                                    "return_format": "array",
                                    "preview_size": "thumbnail",
                                    "library": "all",
                                    "min_width": "",
                                    "min_height": "",
                                    "min_size": "",
                                    "max_width": "",
                                    "max_height": "",
                                    "max_size": "",
                                    "mime_types": ""
                                },
                                {
                                    "key": "field_5da05fcf3c4ec",
                                    "label": "Produkt navn",
                                    "name": "title",
                                    "type": "text",
                                    "instructions": "",
                                    "required": 0,
                                    "conditional_logic": 0,
                                    "wrapper": {
                                        "width": "",
                                        "class": "",
                                        "id": ""
                                    },
                                    "default_value": "",
                                    "placeholder": "",
                                    "prepend": "",
                                    "append": "",
                                    "maxlength": ""
                                },
                                {
                                    "key": "field_5da060723c4ee",
                                    "label": "Produkt tekst",
                                    "name": "text",
                                    "type": "wysiwyg",
                                    "instructions": "",
                                    "required": 0,
                                    "conditional_logic": 0,
                                    "wrapper": {
                                        "width": "",
                                        "class": "",
                                        "id": ""
                                    },
                                    "default_value": "",
                                    "tabs": "all",
                                    "toolbar": "full",
                                    "media_upload": 0,
                                    "delay": 0
                                },
                                {
                                    "key": "field_5da05fcf3c4ed",
                                    "label": "E-mail",
                                    "name": "mail",
                                    "type": "text",
                                    "instructions": "",
                                    "required": 0,
                                    "conditional_logic": 0,
                                    "wrapper": {
                                        "width": "33.3",
                                        "class": "",
                                        "id": ""
                                    },
                                    "default_value": "",
                                    "placeholder": "",
                                    "prepend": "",
                                    "append": "",
                                    "maxlength": ""
                                },
                                {
                                    "key": "field_5da061fb3b2e5",
                                    "label": "Link tekst",
                                    "name": "link_text",
                                    "type": "text",
                                    "instructions": "",
                                    "required": 0,
                                    "conditional_logic": 0,
                                    "wrapper": {
                                        "width": "33.3",
                                        "class": "",
                                        "id": ""
                                    },
                                    "default_value": "",
                                    "placeholder": "",
                                    "prepend": "",
                                    "append": "",
                                    "maxlength": ""
                                },
                                {
                                    "key": "field_5da062093b2e6",
                                    "label": "E-mail emne felt",
                                    "name": "email_subject",
                                    "type": "text",
                                    "instructions": "",
                                    "required": 0,
                                    "conditional_logic": 0,
                                    "wrapper": {
                                        "width": "33.3",
                                        "class": "",
                                        "id": ""
                                    },
                                    "default_value": "",
                                    "placeholder": "",
                                    "prepend": "",
                                    "append": "",
                                    "maxlength": ""
                                }
                            ]
                        }
                    ],
                    "min": "",
                    "max": "3"
                },
                "layout_5d058f3a843f6": {
                    "key": "layout_5d058f3a843f6",
                    "name": "references",
                    "label": "Referencer",
                    "display": "block",
                    "sub_fields": [
                        {
                            "key": "field_5d058f3a843f7",
                            "label": "Sektions indstillinger",
                            "name": "",
                            "type": "tab",
                            "instructions": "",
                            "required": 0,
                            "conditional_logic": 0,
                            "wrapper": {
                                "width": "",
                                "class": "",
                                "id": ""
                            },
                            "placement": "top",
                            "endpoint": 0
                        },
                        {
                            "key": "field_5d058f3a843f8",
                            "label": "Overskrift",
                            "name": "header",
                            "type": "text",
                            "instructions": "",
                            "required": 0,
                            "conditional_logic": 0,
                            "wrapper": {
                                "width": "",
                                "class": "",
                                "id": ""
                            },
                            "default_value": "",
                            "placeholder": "",
                            "prepend": "",
                            "append": "",
                            "maxlength": ""
                        },
                        {
                            "key": "field_5d058f3a843f9",
                            "label": "Tekst",
                            "name": "text",
                            "type": "textarea",
                            "instructions": "",
                            "required": 0,
                            "conditional_logic": 0,
                            "wrapper": {
                                "width": "",
                                "class": "",
                                "id": ""
                            },
                            "default_value": "",
                            "placeholder": "",
                            "maxlength": "",
                            "rows": "",
                            "new_lines": ""
                        },
                        {
                            "key": "field_5d058f3a843fa",
                            "label": "Baggrundsfarve",
                            "name": "bg",
                            "type": "select",
                            "instructions": "Vælg sektionens baggrundsfarve.",
                            "required": 0,
                            "conditional_logic": 0,
                            "wrapper": {
                                "width": "50",
                                "class": "",
                                "id": ""
                            },
                            "choices": {
                                "none": "Ingen",
                                "blue-light": "Lys blå"
                            },
                            "default_value": [
                                "none"
                            ],
                            "allow_null": 0,
                            "multiple": 0,
                            "ui": 0,
                            "ajax": 0,
                            "return_format": "value",
                            "placeholder": ""
                        },
                        {
                            "key": "field_5d058f3a843fb",
                            "label": "Margin",
                            "name": "margin",
                            "type": "select",
                            "instructions": "Vælg om sektionen skal have margin i top, bund, begge eller ingen.",
                            "required": 0,
                            "conditional_logic": 0,
                            "wrapper": {
                                "width": "50",
                                "class": "",
                                "id": ""
                            },
                            "choices": {
                                "none": "Ingen",
                                "top": "Top",
                                "bottom": "Bund",
                                "both": "Begge"
                            },
                            "default_value": [
                                "none"
                            ],
                            "allow_null": 0,
                            "multiple": 0,
                            "ui": 0,
                            "ajax": 0,
                            "return_format": "value",
                            "placeholder": ""
                        },
                        {
                            "key": "field_5d058f3a843fc",
                            "label": "Referencer",
                            "name": "",
                            "type": "tab",
                            "instructions": "",
                            "required": 0,
                            "conditional_logic": 0,
                            "wrapper": {
                                "width": "",
                                "class": "",
                                "id": ""
                            },
                            "placement": "top",
                            "endpoint": 0
                        },
                        {
                            "key": "field_5d058f3a843fd",
                            "label": "Referencer",
                            "name": "",
                            "type": "message",
                            "instructions": "",
                            "required": 0,
                            "conditional_logic": 0,
                            "wrapper": {
                                "width": "",
                                "class": "",
                                "id": ""
                            },
                            "message": "Denne sektion henter de seneste fra referencer fra indlæg.",
                            "new_lines": "wpautop",
                            "esc_html": 0
                        }
                    ],
                    "min": "",
                    "max": "3"
                },
                "layout_5d07a05f97b96": {
                    "key": "layout_5d07a05f97b96",
                    "name": "product-overview",
                    "label": "Produktoversigt",
                    "display": "block",
                    "sub_fields": [
                        {
                            "key": "field_5d07a05f97b97",
                            "label": "Sektions indstillinger",
                            "name": "",
                            "type": "tab",
                            "instructions": "",
                            "required": 0,
                            "conditional_logic": 0,
                            "wrapper": {
                                "width": "",
                                "class": "",
                                "id": ""
                            },
                            "placement": "top",
                            "endpoint": 0
                        },
                        {
                            "key": "field_5d07a05f97b98",
                            "label": "Overskrift",
                            "name": "header",
                            "type": "text",
                            "instructions": "",
                            "required": 0,
                            "conditional_logic": 0,
                            "wrapper": {
                                "width": "",
                                "class": "",
                                "id": ""
                            },
                            "default_value": "",
                            "placeholder": "",
                            "prepend": "",
                            "append": "",
                            "maxlength": ""
                        },
                        {
                            "key": "field_5d07a05f97b99",
                            "label": "Tekst",
                            "name": "text",
                            "type": "textarea",
                            "instructions": "",
                            "required": 0,
                            "conditional_logic": 0,
                            "wrapper": {
                                "width": "",
                                "class": "",
                                "id": ""
                            },
                            "default_value": "",
                            "placeholder": "",
                            "maxlength": "",
                            "rows": "",
                            "new_lines": ""
                        },
                        {
                            "key": "field_5d07a05f97b9a",
                            "label": "Baggrundsfarve",
                            "name": "bg",
                            "type": "select",
                            "instructions": "Vælg sektionens baggrundsfarve.",
                            "required": 0,
                            "conditional_logic": 0,
                            "wrapper": {
                                "width": "50",
                                "class": "",
                                "id": ""
                            },
                            "choices": {
                                "none": "Ingen",
                                "blue-light": "Lys blå"
                            },
                            "default_value": [
                                "none"
                            ],
                            "allow_null": 0,
                            "multiple": 0,
                            "ui": 0,
                            "ajax": 0,
                            "return_format": "value",
                            "placeholder": ""
                        },
                        {
                            "key": "field_5d07a05f97b9b",
                            "label": "Margin",
                            "name": "margin",
                            "type": "select",
                            "instructions": "Vælg om sektionen skal have margin i top, bund, begge eller ingen.",
                            "required": 0,
                            "conditional_logic": 0,
                            "wrapper": {
                                "width": "50",
                                "class": "",
                                "id": ""
                            },
                            "choices": {
                                "none": "Ingen",
                                "top": "Top",
                                "bottom": "Bund",
                                "both": "Begge"
                            },
                            "default_value": [
                                "none"
                            ],
                            "allow_null": 0,
                            "multiple": 0,
                            "ui": 0,
                            "ajax": 0,
                            "return_format": "value",
                            "placeholder": ""
                        },
                        {
                            "key": "field_5d07a05f97b9c",
                            "label": "Produktoversigt",
                            "name": "",
                            "type": "tab",
                            "instructions": "",
                            "required": 0,
                            "conditional_logic": 0,
                            "wrapper": {
                                "width": "",
                                "class": "",
                                "id": ""
                            },
                            "placement": "top",
                            "endpoint": 0
                        },
                        {
                            "key": "field_5d07a05f97b9d",
                            "label": "Produkter",
                            "name": "products",
                            "type": "repeater",
                            "instructions": "",
                            "required": 0,
                            "conditional_logic": 0,
                            "wrapper": {
                                "width": "",
                                "class": "",
                                "id": ""
                            },
                            "collapsed": "",
                            "min": 0,
                            "max": 0,
                            "layout": "block",
                            "button_label": "Tilføj produkt",
                            "sub_fields": [
                                {
                                    "key": "field_5d07a0c397b9e",
                                    "label": "Billede",
                                    "name": "img",
                                    "type": "image",
                                    "instructions": "",
                                    "required": 0,
                                    "conditional_logic": 0,
                                    "wrapper": {
                                        "width": "",
                                        "class": "",
                                        "id": ""
                                    },
                                    "return_format": "array",
                                    "preview_size": "medium",
                                    "library": "all",
                                    "min_width": "",
                                    "min_height": "",
                                    "min_size": "",
                                    "max_width": "",
                                    "max_height": "",
                                    "max_size": "",
                                    "mime_types": ""
                                },
                                {
                                    "key": "field_5d07a0cf97b9f",
                                    "label": "Overskrift",
                                    "name": "title",
                                    "type": "text",
                                    "instructions": "",
                                    "required": 0,
                                    "conditional_logic": 0,
                                    "wrapper": {
                                        "width": "33.3",
                                        "class": "",
                                        "id": ""
                                    },
                                    "default_value": "",
                                    "placeholder": "",
                                    "prepend": "",
                                    "append": "",
                                    "maxlength": ""
                                },
                                {
                                    "key": "field_5d07a0d797ba0",
                                    "label": "Tekst",
                                    "name": "text",
                                    "type": "textarea",
                                    "instructions": "",
                                    "required": 0,
                                    "conditional_logic": 0,
                                    "wrapper": {
                                        "width": "33.3",
                                        "class": "",
                                        "id": ""
                                    },
                                    "default_value": "",
                                    "placeholder": "",
                                    "maxlength": "",
                                    "rows": "",
                                    "new_lines": ""
                                },
                                {
                                    "key": "field_5d07a0f897ba1",
                                    "label": "Link",
                                    "name": "link",
                                    "type": "page_link",
                                    "instructions": "",
                                    "required": 0,
                                    "conditional_logic": 0,
                                    "wrapper": {
                                        "width": "33.3",
                                        "class": "",
                                        "id": ""
                                    },
                                    "post_type": "",
                                    "taxonomy": "",
                                    "allow_null": 0,
                                    "allow_archives": 1,
                                    "multiple": 0
                                }
                            ]
                        }
                    ],
                    "min": "",
                    "max": "3"
                },
                "layout_5d055582ced64": {
                    "key": "layout_5d055582ced64",
                    "name": "accordions",
                    "label": "Accordions",
                    "display": "block",
                    "sub_fields": [
                        {
                            "key": "field_5d055582ced65",
                            "label": "Sektions indstillinger",
                            "name": "",
                            "type": "tab",
                            "instructions": "",
                            "required": 0,
                            "conditional_logic": 0,
                            "wrapper": {
                                "width": "",
                                "class": "",
                                "id": ""
                            },
                            "placement": "top",
                            "endpoint": 0
                        },
                        {
                            "key": "field_5d055582ced67",
                            "label": "Baggrundsfarve",
                            "name": "bg",
                            "type": "select",
                            "instructions": "Vælg sektionens baggrundsfarve.",
                            "required": 0,
                            "conditional_logic": 0,
                            "wrapper": {
                                "width": "50",
                                "class": "",
                                "id": ""
                            },
                            "choices": {
                                "none": "Ingen",
                                "blue-light": "Lys blå"
                            },
                            "default_value": [
                                "none"
                            ],
                            "allow_null": 0,
                            "multiple": 0,
                            "ui": 0,
                            "return_format": "value",
                            "ajax": 0,
                            "placeholder": ""
                        },
                        {
                            "key": "field_5d055582ced68",
                            "label": "Margin",
                            "name": "margin",
                            "type": "select",
                            "instructions": "Vælg om sektionen skal have margin i top, bund, begge eller ingen.",
                            "required": 0,
                            "conditional_logic": 0,
                            "wrapper": {
                                "width": "50",
                                "class": "",
                                "id": ""
                            },
                            "choices": {
                                "none": "Ingen",
                                "top": "Top",
                                "bottom": "Bund",
                                "both": "Begge"
                            },
                            "default_value": [
                                "none"
                            ],
                            "allow_null": 0,
                            "multiple": 0,
                            "ui": 0,
                            "ajax": 0,
                            "return_format": "value",
                            "placeholder": ""
                        },
                        {
                            "key": "field_5d055582ced69",
                            "label": "Accordions",
                            "name": "",
                            "type": "tab",
                            "instructions": "",
                            "required": 0,
                            "conditional_logic": 0,
                            "wrapper": {
                                "width": "",
                                "class": "",
                                "id": ""
                            },
                            "placement": "top",
                            "endpoint": 0
                        },
                        {
                            "key": "field_5d0555e5ced6f",
                            "label": "Overskrift",
                            "name": "title",
                            "type": "text",
                            "instructions": "",
                            "required": 0,
                            "conditional_logic": 0,
                            "wrapper": {
                                "width": "",
                                "class": "",
                                "id": ""
                            },
                            "default_value": "",
                            "placeholder": "",
                            "prepend": "",
                            "append": "",
                            "maxlength": ""
                        },
                        {
                            "key": "field_5d055582ced6a",
                            "label": "Accordions",
                            "name": "accordion",
                            "type": "repeater",
                            "instructions": "",
                            "required": 0,
                            "conditional_logic": 0,
                            "wrapper": {
                                "width": "",
                                "class": "",
                                "id": ""
                            },
                            "collapsed": "",
                            "min": 0,
                            "max": 0,
                            "layout": "block",
                            "button_label": "Tilføj Accordions",
                            "sub_fields": [
                                {
                                    "key": "field_5d055582ced6c",
                                    "label": "Overskrift",
                                    "name": "title",
                                    "type": "text",
                                    "instructions": "",
                                    "required": 0,
                                    "conditional_logic": 0,
                                    "wrapper": {
                                        "width": "",
                                        "class": "",
                                        "id": ""
                                    },
                                    "default_value": "",
                                    "placeholder": "",
                                    "prepend": "",
                                    "append": "",
                                    "maxlength": ""
                                },
                                {
                                    "key": "field_5d055582ced6d",
                                    "label": "Tekst",
                                    "name": "text",
                                    "type": "wysiwyg",
                                    "instructions": "",
                                    "required": 0,
                                    "conditional_logic": 0,
                                    "wrapper": {
                                        "width": "",
                                        "class": "",
                                        "id": ""
                                    },
                                    "default_value": "",
                                    "tabs": "all",
                                    "toolbar": "full",
                                    "media_upload": 0,
                                    "delay": 0
                                }
                            ]
                        }
                    ],
                    "min": "",
                    "max": ""
                },
                "layout_5d0763b554cea": {
                    "key": "layout_5d0763b554cea",
                    "name": "latest-posts",
                    "label": "Seneste indlæg",
                    "display": "block",
                    "sub_fields": [
                        {
                            "key": "field_5d0763b554ceb",
                            "label": "Sektions indstillinger",
                            "name": "",
                            "type": "tab",
                            "instructions": "",
                            "required": 0,
                            "conditional_logic": 0,
                            "wrapper": {
                                "width": "",
                                "class": "",
                                "id": ""
                            },
                            "placement": "top",
                            "endpoint": 0
                        },
                        {
                            "key": "field_5d07767a1457e",
                            "label": "Overskrift",
                            "name": "header",
                            "type": "text",
                            "instructions": "",
                            "required": 0,
                            "conditional_logic": 0,
                            "wrapper": {
                                "width": "",
                                "class": "",
                                "id": ""
                            },
                            "default_value": "",
                            "placeholder": "",
                            "prepend": "",
                            "append": "",
                            "maxlength": ""
                        },
                        {
                            "key": "field_5d0763b554cec",
                            "label": "Baggrundsfarve",
                            "name": "bg",
                            "type": "select",
                            "instructions": "Vælg sektionens baggrundsfarve.",
                            "required": 0,
                            "conditional_logic": 0,
                            "wrapper": {
                                "width": "50",
                                "class": "",
                                "id": ""
                            },
                            "choices": {
                                "none": "Ingen",
                                "blue-light": "Lys blå"
                            },
                            "default_value": [
                                "none"
                            ],
                            "allow_null": 0,
                            "multiple": 0,
                            "ui": 0,
                            "ajax": 0,
                            "return_format": "value",
                            "placeholder": ""
                        },
                        {
                            "key": "field_5d0763b554ced",
                            "label": "Margin",
                            "name": "margin",
                            "type": "select",
                            "instructions": "Vælg om sektionen skal have margin i top, bund, begge eller ingen.",
                            "required": 0,
                            "conditional_logic": 0,
                            "wrapper": {
                                "width": "50",
                                "class": "",
                                "id": ""
                            },
                            "choices": {
                                "none": "Ingen",
                                "top": "Top",
                                "bottom": "Bund",
                                "both": "Begge"
                            },
                            "default_value": [
                                "none"
                            ],
                            "allow_null": 0,
                            "multiple": 0,
                            "ui": 0,
                            "ajax": 0,
                            "return_format": "value",
                            "placeholder": ""
                        },
                        {
                            "key": "field_5d0763b554cee",
                            "label": "Seneste indlæg",
                            "name": "",
                            "type": "tab",
                            "instructions": "",
                            "required": 0,
                            "conditional_logic": 0,
                            "wrapper": {
                                "width": "",
                                "class": "",
                                "id": ""
                            },
                            "placement": "top",
                            "endpoint": 0
                        },
                        {
                            "key": "field_5d0763db54cf3",
                            "label": "Seneste indlæg",
                            "name": "",
                            "type": "message",
                            "instructions": "",
                            "required": 0,
                            "conditional_logic": 0,
                            "wrapper": {
                                "width": "",
                                "class": "",
                                "id": ""
                            },
                            "message": "Denne sektion henter de 3 seneste indlæg fra en selvvalgt kategori.",
                            "new_lines": "wpautop",
                            "esc_html": 1
                        },
                        {
                            "key": "field_5d0784ca32bc9",
                            "label": "Kategori",
                            "name": "cat",
                            "type": "taxonomy",
                            "instructions": "Vælg kategorien der skal hentes indlæg fra.",
                            "required": 0,
                            "conditional_logic": 0,
                            "wrapper": {
                                "width": "33.3",
                                "class": "",
                                "id": ""
                            },
                            "taxonomy": "category",
                            "field_type": "select",
                            "allow_null": 1,
                            "add_term": 1,
                            "save_terms": 0,
                            "load_terms": 0,
                            "return_format": "id",
                            "multiple": 0
                        },
                        {
                            "key": "field_5d07854632bca",
                            "label": "Link",
                            "name": "link",
                            "type": "url",
                            "instructions": "Link til kategorien, hvor resten af indlæg kan læses.",
                            "required": 0,
                            "conditional_logic": 0,
                            "wrapper": {
                                "width": "33.3",
                                "class": "",
                                "id": ""
                            },
                            "default_value": "",
                            "placeholder": ""
                        },
                        {
                            "key": "field_5d07859432bcb",
                            "label": "Position",
                            "name": "position",
                            "type": "radio",
                            "instructions": "Vælg om billede skal placeres til højre eller venstre.",
                            "required": 0,
                            "conditional_logic": 0,
                            "wrapper": {
                                "width": "33.3",
                                "class": "",
                                "id": ""
                            },
                            "choices": {
                                "left": "Venstre",
                                "right": "Højre"
                            },
                            "allow_null": 0,
                            "other_choice": 0,
                            "default_value": "",
                            "layout": "vertical",
                            "return_format": "value",
                            "save_other_choice": 0
                        }
                    ],
                    "min": "",
                    "max": ""
                },
                "layout_5d079e754fb3a": {
                    "key": "layout_5d079e754fb3a",
                    "name": "contact",
                    "label": "Kontakt sektion",
                    "display": "block",
                    "sub_fields": [
                        {
                            "key": "field_5d079e754fb3b",
                            "label": "Sektions indstillinger",
                            "name": "",
                            "type": "tab",
                            "instructions": "",
                            "required": 0,
                            "conditional_logic": 0,
                            "wrapper": {
                                "width": "",
                                "class": "",
                                "id": ""
                            },
                            "placement": "top",
                            "endpoint": 0
                        },
                        {
                            "key": "field_5d079e754fb3d",
                            "label": "Baggrundsfarve",
                            "name": "bg",
                            "type": "select",
                            "instructions": "Vælg sektionens baggrundsfarve.",
                            "required": 0,
                            "conditional_logic": 0,
                            "wrapper": {
                                "width": "50",
                                "class": "",
                                "id": ""
                            },
                            "choices": {
                                "none": "Ingen",
                                "blue-light": "Lys blå"
                            },
                            "default_value": [
                                "none"
                            ],
                            "allow_null": 0,
                            "multiple": 0,
                            "ui": 0,
                            "ajax": 0,
                            "return_format": "value",
                            "placeholder": ""
                        },
                        {
                            "key": "field_5d079e754fb3e",
                            "label": "Margin",
                            "name": "margin",
                            "type": "select",
                            "instructions": "Vælg om sektionen skal have margin i top, bund, begge eller ingen.",
                            "required": 0,
                            "conditional_logic": 0,
                            "wrapper": {
                                "width": "50",
                                "class": "",
                                "id": ""
                            },
                            "choices": {
                                "none": "Ingen",
                                "top": "Top",
                                "bottom": "Bund",
                                "both": "Begge"
                            },
                            "default_value": [
                                "none"
                            ],
                            "allow_null": 0,
                            "multiple": 0,
                            "ui": 0,
                            "ajax": 0,
                            "return_format": "value",
                            "placeholder": ""
                        },
                        {
                            "key": "field_5d079e754fb3f",
                            "label": "Kontakt sektion",
                            "name": "",
                            "type": "tab",
                            "instructions": "",
                            "required": 0,
                            "conditional_logic": 0,
                            "wrapper": {
                                "width": "",
                                "class": "",
                                "id": ""
                            },
                            "placement": "top",
                            "endpoint": 0
                        },
                        {
                            "key": "field_5d079e754fb40",
                            "label": "Kontakt sektion",
                            "name": "",
                            "type": "message",
                            "instructions": "",
                            "required": 0,
                            "conditional_logic": 0,
                            "wrapper": {
                                "width": "",
                                "class": "",
                                "id": ""
                            },
                            "message": "Dette layout henter kontakt sektionen.",
                            "new_lines": "wpautop",
                            "esc_html": 1
                        }
                    ],
                    "min": "",
                    "max": ""
                },
                "layout_5d057eadbc509": {
                    "key": "layout_5d057eadbc509",
                    "name": "text-image",
                    "label": "Forskudt billede m. tekst",
                    "display": "block",
                    "sub_fields": [
                        {
                            "key": "field_5d057eadbc50a",
                            "label": "Sektions indstillinger",
                            "name": "",
                            "type": "tab",
                            "instructions": "",
                            "required": 0,
                            "conditional_logic": 0,
                            "wrapper": {
                                "width": "",
                                "class": "",
                                "id": ""
                            },
                            "placement": "top",
                            "endpoint": 0
                        },
                        {
                            "key": "field_5d057eadbc50b",
                            "label": "Baggrundsfarve",
                            "name": "bg",
                            "type": "select",
                            "instructions": "Vælg sektionens baggrundsfarve.",
                            "required": 0,
                            "conditional_logic": 0,
                            "wrapper": {
                                "width": "50",
                                "class": "",
                                "id": ""
                            },
                            "choices": {
                                "none": "Ingen",
                                "blue-light": "Lys blå"
                            },
                            "default_value": [
                                "none"
                            ],
                            "allow_null": 0,
                            "multiple": 0,
                            "ui": 0,
                            "ajax": 0,
                            "return_format": "value",
                            "placeholder": ""
                        },
                        {
                            "key": "field_5d057eadbc50c",
                            "label": "Margin",
                            "name": "margin",
                            "type": "select",
                            "instructions": "Vælg om sektionen skal have margin i top, bund, begge eller ingen.",
                            "required": 0,
                            "conditional_logic": 0,
                            "wrapper": {
                                "width": "50",
                                "class": "",
                                "id": ""
                            },
                            "choices": {
                                "none": "Ingen",
                                "top": "Top",
                                "bottom": "Bund",
                                "both": "Begge"
                            },
                            "default_value": [
                                "none"
                            ],
                            "allow_null": 0,
                            "multiple": 0,
                            "ui": 0,
                            "ajax": 0,
                            "return_format": "value",
                            "placeholder": ""
                        },
                        {
                            "key": "field_5d057eadbc50d",
                            "label": "Forskudt billede m. tekst",
                            "name": "",
                            "type": "tab",
                            "instructions": "",
                            "required": 0,
                            "conditional_logic": 0,
                            "wrapper": {
                                "width": "",
                                "class": "",
                                "id": ""
                            },
                            "placement": "top",
                            "endpoint": 0
                        },
                        {
                            "key": "field_5d057eadbc50e",
                            "label": "Overskrift",
                            "name": "title",
                            "type": "text",
                            "instructions": "",
                            "required": 0,
                            "conditional_logic": 0,
                            "wrapper": {
                                "width": "50",
                                "class": "",
                                "id": ""
                            },
                            "default_value": "",
                            "placeholder": "",
                            "prepend": "",
                            "append": "",
                            "maxlength": ""
                        },
                        {
                            "key": "field_5d057eadbc50f",
                            "label": "Tekst",
                            "name": "text-image",
                            "type": "wysiwyg",
                            "instructions": "",
                            "required": 0,
                            "conditional_logic": 0,
                            "wrapper": {
                                "width": "50",
                                "class": "",
                                "id": ""
                            },
                            "default_value": "",
                            "tabs": "all",
                            "toolbar": "full",
                            "media_upload": 1,
                            "delay": 0
                        },
                        {
                            "key": "field_5d057f0abc512",
                            "label": "Billede",
                            "name": "img",
                            "type": "image",
                            "instructions": "",
                            "required": 0,
                            "conditional_logic": 0,
                            "wrapper": {
                                "width": "50",
                                "class": "",
                                "id": ""
                            },
                            "return_format": "array",
                            "preview_size": "medium",
                            "library": "all",
                            "min_width": "",
                            "min_height": "",
                            "min_size": "",
                            "max_width": "",
                            "max_height": "",
                            "max_size": "",
                            "mime_types": ""
                        },
                        {
                            "key": "field_5d057f4dbc513",
                            "label": "Position",
                            "name": "position",
                            "type": "radio",
                            "instructions": "Vælg om billedets placering",
                            "required": 0,
                            "conditional_logic": 0,
                            "wrapper": {
                                "width": "50",
                                "class": "",
                                "id": ""
                            },
                            "choices": {
                                "left": "Venstre",
                                "right": "Højre"
                            },
                            "allow_null": 0,
                            "other_choice": 0,
                            "default_value": "",
                            "layout": "vertical",
                            "return_format": "value",
                            "save_other_choice": 0
                        }
                    ],
                    "min": "",
                    "max": ""
                },
                "layout_5d06331582cec": {
                    "key": "layout_5d06331582cec",
                    "name": "text-image-slider",
                    "label": "Produkt specifikationer m. billede",
                    "display": "block",
                    "sub_fields": [
                        {
                            "key": "field_5d06331582ced",
                            "label": "Sektions indstillinger",
                            "name": "",
                            "type": "tab",
                            "instructions": "",
                            "required": 0,
                            "conditional_logic": 0,
                            "wrapper": {
                                "width": "",
                                "class": "",
                                "id": ""
                            },
                            "placement": "top",
                            "endpoint": 0
                        },
                        {
                            "key": "field_5d06331582cee",
                            "label": "Baggrundsfarve",
                            "name": "bg",
                            "type": "select",
                            "instructions": "Vælg sektionens baggrundsfarve.",
                            "required": 0,
                            "conditional_logic": 0,
                            "wrapper": {
                                "width": "50",
                                "class": "",
                                "id": ""
                            },
                            "choices": {
                                "none": "Ingen",
                                "blue-light": "Lys blå"
                            },
                            "default_value": [
                                "none"
                            ],
                            "allow_null": 0,
                            "multiple": 0,
                            "ui": 0,
                            "ajax": 0,
                            "return_format": "value",
                            "placeholder": ""
                        },
                        {
                            "key": "field_5d06331582cef",
                            "label": "Margin",
                            "name": "margin",
                            "type": "select",
                            "instructions": "Vælg om sektionen skal have margin i top, bund, begge eller ingen.",
                            "required": 0,
                            "conditional_logic": 0,
                            "wrapper": {
                                "width": "50",
                                "class": "",
                                "id": ""
                            },
                            "choices": {
                                "none": "Ingen",
                                "top": "Top",
                                "bottom": "Bund",
                                "both": "Begge"
                            },
                            "default_value": [
                                "none"
                            ],
                            "allow_null": 0,
                            "multiple": 0,
                            "ui": 0,
                            "ajax": 0,
                            "return_format": "value",
                            "placeholder": ""
                        },
                        {
                            "key": "field_5d06331582cf0",
                            "label": "Produkt specifikationer m. billede",
                            "name": "",
                            "type": "tab",
                            "instructions": "",
                            "required": 0,
                            "conditional_logic": 0,
                            "wrapper": {
                                "width": "",
                                "class": "",
                                "id": ""
                            },
                            "placement": "top",
                            "endpoint": 0
                        },
                        {
                            "key": "field_5d06331582cf1",
                            "label": "Overskrift",
                            "name": "title",
                            "type": "text",
                            "instructions": "",
                            "required": 0,
                            "conditional_logic": 0,
                            "wrapper": {
                                "width": "50",
                                "class": "",
                                "id": ""
                            },
                            "default_value": "",
                            "placeholder": "",
                            "prepend": "",
                            "append": "",
                            "maxlength": ""
                        },
                        {
                            "key": "field_5d06331582cf2",
                            "label": "Tekst",
                            "name": "text-image",
                            "type": "wysiwyg",
                            "instructions": "",
                            "required": 0,
                            "conditional_logic": 0,
                            "wrapper": {
                                "width": "50",
                                "class": "",
                                "id": ""
                            },
                            "default_value": "",
                            "tabs": "all",
                            "toolbar": "full",
                            "media_upload": 0,
                            "delay": 0
                        },
                        {
                            "key": "field_5d06331582cf3",
                            "label": "Slides",
                            "name": "slides",
                            "type": "repeater",
                            "instructions": "",
                            "required": 0,
                            "conditional_logic": 0,
                            "wrapper": {
                                "width": "50",
                                "class": "",
                                "id": ""
                            },
                            "collapsed": "",
                            "min": 0,
                            "max": 0,
                            "layout": "table",
                            "button_label": "Tilføj slides",
                            "sub_fields": [
                                {
                                    "key": "field_5d0633991c1cf",
                                    "label": "Billede",
                                    "name": "slides_img",
                                    "type": "image",
                                    "instructions": "",
                                    "required": 0,
                                    "conditional_logic": 0,
                                    "wrapper": {
                                        "width": "",
                                        "class": "",
                                        "id": ""
                                    },
                                    "return_format": "array",
                                    "preview_size": "medium",
                                    "library": "all",
                                    "min_width": "",
                                    "min_height": "",
                                    "min_size": "",
                                    "max_width": "",
                                    "max_height": "",
                                    "max_size": "",
                                    "mime_types": ""
                                }
                            ]
                        },
                        {
                            "key": "field_5d06331582cf4",
                            "label": "Position",
                            "name": "position",
                            "type": "radio",
                            "instructions": "Vælg om billedets placering",
                            "required": 0,
                            "conditional_logic": 0,
                            "wrapper": {
                                "width": "50",
                                "class": "",
                                "id": ""
                            },
                            "choices": {
                                "left": "Venstre",
                                "right": "Højre"
                            },
                            "allow_null": 0,
                            "other_choice": 0,
                            "save_other_choice": 0,
                            "default_value": "",
                            "layout": "vertical",
                            "return_format": "value"
                        }
                    ],
                    "min": "",
                    "max": ""
                }
            },
            "button_label": "Tilføj Layout",
            "min": "",
            "max": ""
        }
    ],
    "location": [
        [
            {
                "param": "page_template",
                "operator": "==",
                "value": "page-layouts.php"
            }
        ]
    ],
    "menu_order": 1,
    "position": "normal",
    "style": "seamless",
    "label_placement": "top",
    "instruction_placement": "label",
    "hide_on_screen": [
        "the_content",
        "excerpt",
        "discussion",
        "comments",
        "revisions",
        "slug",
        "author",
        "format",
        "featured_image",
        "categories",
        "tags",
        "send-trackbacks"
    ],
    "active": 1,
    "description": "",
    "modified": 1570791972
}